
{
    "Favorites": "https://zen-srv14.zenoptics.com:8443/com.zenoptics.services/#/list/favorites",
    "My Reports" :"https://zen-srv14.zenoptics.com:8443/com.zenoptics.services/#/list/myReports",
    "What's New" : "https://zen-srv14.zenoptics.com:8443/com.zenoptics.services/#/list/whatsNew",
    "Recently Viewed":"https://zen-srv14.zenoptics.com:8443/com.zenoptics.services/#/list/recentlyViewed",
    "Application Settings":"https://zen-srv14.zenoptics.com:8443/com.zenoptics.services/#/list/admin/applicationsettings",
    "Categories":"https://zen-srv14.zenoptics.com:8443/com.zenoptics.services/#/list/categories",
    "Report Types" : "https://zen-srv14.zenoptics.com:8443/com.zenoptics.services/#/list/reports"

    
}
