2024-01-23 09-38-19 Executing beforeEach hook
2024-01-23 09-38-19 Test suite completed
2024-01-23 09-39-45 Executing beforeEach hook
2024-01-23 09-42-25 Executing beforeEach hook
2024-01-23 09-42-39 Executing beforeEach hook
2024-01-23 09-42-39 TC-024 Verify extractor scheduling functionality
2024-01-23 09-42-39 Wait: 5000 milliseconds
2024-01-23 09-42-39 Open Menu: Menu opened successfully
2024-01-23 09-42-39 Clicking on Administrator Settings
2024-01-23 09-42-39 Clicking on Source Connection settings
2024-01-23 09-42-39 Clicking on body
2024-01-23 09-42-39 Clicking on the search connection button.
2024-01-23 09-42-39 Typing connection name 'Tableau_C8' in the search input.
2024-01-23 09-42-39 Navigating to the third table on the page
2024-01-23 09-42-39 Clicking on the "Schedule Job" button for the first item in the table
2024-01-23 09-42-39 Clicking on the submit button in the user form
2024-01-23 09-42-39 Verifying the existence and text of the toaster notification
2024-01-23 09-42-39 Verifying the text in the scheduler period in the mat-sidenav
2024-01-23 09-45-24 Executing beforeEach hook
2024-01-23 09-45-24 TC-024 Verify extractor scheduling functionality
2024-01-23 09-45-24 Wait: 5000 milliseconds
2024-01-23 09-45-24 Open Menu: Menu opened successfully
2024-01-23 09-45-24 Clicking on Administrator Settings
2024-01-23 09-45-24 Clicking on Source Connection settings
2024-01-23 09-45-24 Clicking on body
2024-01-23 09-45-24 Clicking on the search connection button.
2024-01-23 09-45-24 Typing connection name 'Tableau_C8' in the search input.
2024-01-23 09-45-24 Navigating to the third table on the page
2024-01-23 09-45-24 Clicking on the "Schedule Job" button for the first item in the table
2024-01-23 09-45-24 Clicking on the submit button in the user form
2024-01-23 09-45-24 Verifying the existence and text of the toaster notification
2024-01-23 09-45-24 Verifying the text in the scheduler period in the mat-sidenav
2024-01-23 09-45-24 Test suite completed
2024-01-23 09-47-24 Executing beforeEach hook
2024-01-23 09-47-24 Verify Updating a workflow including updating shared users , adding reports,removing reports and changing the order of reports
2024-01-23 09-47-24 Wait: 5000 milliseconds
2024-01-23 09-47-24 Open Menu: Menu opened successfully
Opened the menu
2024-01-23 09-47-24 Getting the text of all side menu links
Clicked on side menu link: Workflow
2024-01-23 09-49-17 Executing beforeEach hook
2024-01-23 09-49-17 Verify Updating a workflow including updating shared users , adding reports,removing reports and changing the order of reports
2024-01-23 09-49-17 Wait: 5000 milliseconds
2024-01-23 09-49-17 Open Menu: Menu opened successfully
Opened the menu
2024-01-23 09-49-17 Getting the text of all side menu links
Clicked on side menu link: Workflow
2024-01-23 09-49-17 Click on Home Icon
2024-01-23 09-49-17 Wait: 5000 milliseconds
2024-01-23 09-49-17 Open Menu: Menu opened successfully
2024-01-23 09-49-17 Getting the text of all side menu links
2024-01-23 09-49-17 Test suite completed
2024-01-23 09-53-49 Executing beforeEach hook
2024-01-23 09-53-49 Verify Updating a workflow including updating shared users , adding reports,removing reports and changing the order of reports
2024-01-23 09-53-49 Wait: 5000 milliseconds
2024-01-23 09-53-49 Open Menu: Menu opened successfully
Opened the menu
2024-01-23 09-53-49 Getting the text of all side menu links
Clicked on side menu link: Workflow
2024-01-23 09-59-58 Executing beforeEach hook
2024-01-23 10-00-14 Executing beforeEach hook
2024-01-23 10-00-14 Verify Updating a workflow including updating shared users , adding reports,removing reports and changing the order of reports
2024-01-23 10-00-14 Wait: 5000 milliseconds
2024-01-23 10-00-14 Open Menu: Menu opened successfully
Opened the menu
2024-01-23 10-00-14 Getting the text of all side menu links
Clicked on side menu link: Workflow
2024-01-23 10-05-11 Executing beforeEach hook
2024-01-23 10-05-11 Verify Updating a workflow including updating shared users , adding reports,removing reports and changing the order of reports
2024-01-23 10-05-11 Wait: 5000 milliseconds
2024-01-23 10-05-11 Open Menu: Menu opened successfully
Opened the menu
2024-01-23 10-05-11 Getting the text of all side menu links
Clicked on side menu link: Workflow
2024-01-23 10-05-11 Click on Home Icon
2024-01-23 10-05-11 Wait: 5000 milliseconds
2024-01-23 10-05-11 Open Menu: Menu opened successfully
2024-01-23 10-05-11 Getting the text of all side menu links
2024-01-23 10-05-11 Test suite completed
2024-01-23 10-08-58 Executing beforeEach hook
2024-01-23 10-08-58 Verify Updating a workflow including updating shared users , adding reports,removing reports and changing the order of reports
2024-01-23 10-08-58 Wait: 5000 milliseconds
2024-01-23 10-08-58 Open Menu: Menu opened successfully
Opened the menu
2024-01-23 10-08-58 Getting the text of all side menu links
Clicked on side menu link: Workflow
2024-01-23 10-08-58 Verify Updating a workflow including updating shared users , adding reports,removing reports and changing the order of reports
2024-01-23 10-08-58 Wait: 5000 milliseconds
2024-01-23 10-08-58 Open Menu: Menu opened successfully
2024-01-23 10-08-58 Getting the text of all side menu links
2024-01-23 10-08-58 Verify Updating a workflow including updating shared users , adding reports,removing reports and changing the order of reports
2024-01-23 10-08-58 Wait: 5000 milliseconds
2024-01-23 10-08-58 Open Menu: Menu opened successfully
2024-01-23 10-08-58 Getting the text of all side menu links
2024-01-23 10-08-58 Click on Home Icon
2024-01-23 10-08-58 Wait: 5000 milliseconds
2024-01-23 10-08-58 Open Menu: Menu opened successfully
2024-01-23 10-08-58 Getting the text of all side menu links
2024-01-23 10-08-58 Test suite completed
2024-01-23 10-19-43 Executing beforeEach hook
2024-01-23 10-20-04 Executing beforeEach hook
2024-01-23 10-20-04 TC-035 Verify the Experimental flags for dashboard personalization
2024-01-23 10-20-04 Wait: 5000 milliseconds
2024-01-23 10-20-04 Open Menu: Menu opened successfully
2024-01-23 10-20-04 Click on Home Icon
2024-01-23 10-20-04 Wait: 5000 milliseconds
2024-01-23 10-20-04 Open Menu: Menu opened successfully
2024-01-23 10-20-04 Click on Home Icon
2024-01-23 10-20-04 Wait: 5000 milliseconds
2024-01-23 10-20-04 Open Menu: Menu opened successfully
2024-01-23 10-20-04 Clicking on Profile icon
2024-01-23 10-20-04 Clicking on dashboard setting icon
2024-01-23 10-20-04 Test suite completed
2024-01-23 10-23-59 Executing beforeEach hook
2024-01-23 10-23-59 TC-038 Verify pinning/unpinning categories from dashboard page
2024-01-23 10-23-59 Clicking on Profile icon
2024-01-23 10-23-59 Clicking on dashboard setting icon
2024-01-23 10-23-59 Executing beforeEach hook
2024-01-23 10-23-59 TC-038 Verify pinning/unpinning categories from dashboard page
2024-01-23 10-23-59 Clicking on Profile icon
2024-01-23 10-23-59 Clicking on dashboard setting icon
