2024-01-09 16-50-53 TC-032_1 Verify Updating a workflow including adding reports
Wait: 5000 milliseconds
2024-01-09 16-50-52 Wait: 5000 milliseconds
2024-01-09 16-50-52 Open Menu: Menu opened successfully
Opened the menu
2024-01-09 16-50-52 Getting the text of all side menu links
Clicked on side menu link: Workflow
2024-01-09 16-50-52 Click on Home Icon
2024-01-09 16-50-52 Wait: 5000 milliseconds
2024-01-09 16-50-52 Open Menu: Menu opened successfully
2024-01-09 16-50-52 Getting the text of all side menu links
2024-01-09 16-50-52 Wait: 5000 milliseconds
2024-01-09 16-50-52 Open Menu: Menu opened successfully
2024-01-09 16-50-52 Getting the text of all side menu links
2024-01-09 16-50-53 TC-032_1 Verify Updating a workflow including adding reports
Wait: 5000 milliseconds
2024-01-09 16-50-52 Wait: 5000 milliseconds
2024-01-09 16-50-52 Open Menu: Menu opened successfully
Opened the menu
2024-01-09 16-50-52 Getting the text of all side menu links
Clicked on side menu link: Workflow
2024-01-09 16-50-52 Click on Home Icon
2024-01-09 16-50-52 Wait: 5000 milliseconds
2024-01-09 16-50-52 Open Menu: Menu opened successfully
2024-01-09 16-50-52 Getting the text of all side menu links
2024-01-09 16-50-52 Wait: 5000 milliseconds
2024-01-09 16-50-52 Open Menu: Menu opened successfully
2024-01-09 16-50-52 Getting the text of all side menu links
