2024-01-23 12-09-27 Executing beforeEach hook
2024-01-23 12-09-40 Executing beforeEach hook
2024-01-23 12-09-40 TC-032_1 TC-00001_Verify creating a new Tableau Connection
2024-01-23 12-09-40 Wait: 5000 milliseconds
2024-01-23 12-09-40 Open Menu: Menu opened successfully
2024-01-23 12-09-40 Clicking on Administrator Settings
2024-01-23 12-09-40 Clicking on Source Connection settings
2024-01-23 12-09-40 Clicking on body
2024-01-23 12-09-40 Adding details to creatte Test Connection
2024-01-23 12-09-40 Executing beforeEach hook
2024-01-23 12-09-40 Add report type for Tableau
2024-01-23 12-09-40 Wait: 5000 milliseconds
2024-01-23 12-09-40 Open Menu: Menu opened successfully
2024-01-23 12-09-40 Clicking on Administrator Settings
2024-01-23 12-09-40 Clicking on Report type testing
2024-01-23 12-09-40 Clicking on page body
2024-01-23 12-09-40 Typing "Tableau" in the search field for report types
2024-01-23 12-09-40 Clicking on edit row
2024-01-23 12-09-40 Wait: 1500 milliseconds
2024-01-23 12-09-40 Editing launch URL and thumbnail URL for Report Type
2024-01-23 12-09-40 Clicking on the submit button to save changes
2024-01-23 12-09-40 Verifying success message for Report Type edit
2024-01-23 12-09-40 Executing beforeEach hook
2024-01-23 12-09-40 TC-0001_Run Complete Tableau Connection
2024-01-23 12-09-40 Wait: 5000 milliseconds
2024-01-23 12-09-40 Open Menu: Menu opened successfully
2024-01-23 12-09-40 Clicking on Administrator Settings
2024-01-23 12-09-40 Clicking on Source Connection settings
2024-01-23 12-09-40 Clicking on body
2024-01-23 12-09-40 Clicking on the search connection icon
2024-01-23 12-09-40 Typing connection name in the search field: Tableau_C8
2024-01-23 12-09-40 Selecting the 4th table in the search results
2024-01-23 12-09-40 Initiating Tableau run by clicking on the Run Complete button
2024-01-23 12-09-40 Verifying toaster notification for run initiation
2024-01-23 12-09-40 Waiting for Tableau run to complete (timeout: 800000 milliseconds)
2024-01-23 12-09-40 Executing beforeEach hook
2024-01-23 12-09-40 TC-0001_Run  Tableau Connection
2024-01-23 12-09-40 Wait: 5000 milliseconds
2024-01-23 12-09-40 Open Menu: Menu opened successfully
2024-01-23 12-09-40 Clicking on Administrator Settings
2024-01-23 12-09-40 Clicking on Source Connection settings
2024-01-23 12-09-40 Clicking on body
2024-01-23 12-09-40 Clicking on the search connection icon
2024-01-23 12-09-40 Typing connection name in the search field: Tableau_C8
2024-01-23 12-09-40 Selecting the 4th table in the search results
2024-01-23 12-09-40 Initiating Tableau run by clicking on the Run Complete button
2024-01-23 12-09-40 Verifying toaster notification for run initiation
2024-01-23 12-09-40 Waiting for Tableau run to complete (timeout: 800000 milliseconds)
2024-01-23 12-09-40 Executing beforeEach hook
2024-01-23 12-09-40 Add category to whatsNew
2024-01-23 12-09-40 Wait: 5000 milliseconds
2024-01-23 12-09-40 Open Menu: Menu opened successfully
2024-01-23 12-09-40 Clicking on Administrator Settings
2024-01-23 12-09-40 Clicking on Steward Management
2024-01-23 12-09-40 Clicking on Categorized Reports
2024-01-23 12-09-40 Executing beforeEach hook
2024-01-23 12-09-40 TC-001_Verify Links in the Side Panel are displayed properly (ZEN2022-TC-43)
2024-01-23 12-09-40 Wait: 5000 milliseconds
2024-01-23 12-09-40 Open Menu: Menu opened successfully
2024-01-23 12-09-40 Wait: 2000 milliseconds
2024-01-23 12-09-40 Side menu links verified successfully
2024-01-23 12-09-40 Side menu links verified successfully
2024-01-23 12-09-40 Side menu links verified successfully
2024-01-23 12-09-40 Side menu links verified successfully
2024-01-23 12-09-40 Side menu links verified successfully
2024-01-23 12-09-40 Side menu links verified successfully
2024-01-23 12-09-40 Side menu links verified successfully
2024-01-23 12-09-40 Side menu links verified successfully
2024-01-23 12-09-40 Side menu links verified successfully
2024-01-23 12-09-40 Side menu links verified successfully
2024-01-23 12-09-40 Side menu links verified successfully
2024-01-23 12-09-40 Executing beforeEach hook
2024-01-23 12-09-40 TC-0001_Run Complete Tableau ConnectionTC-002_1 Verify clicking on all the links on left nav bar expect Reports (ZEN2022-TC-44)
2024-01-23 12-09-40 Wait: 5000 milliseconds
2024-01-23 12-09-40 Open Menu: Menu opened successfully
2024-01-23 12-09-40 Clicking on navbar link: Categories
2024-01-23 12-09-40 Verifying URL includes: /categories
2024-01-23 12-09-40 Clicking on navbar link: Workflows
2024-01-23 12-09-40 Verifying URL includes: /workflows
2024-01-23 12-09-40 Clicking on navbar link: BI Glossary
2024-01-23 12-09-40 Verifying URL includes: /biglossary
2024-01-23 12-09-40 Executing beforeEach hook
2024-01-23 12-09-40 TC-002_2 Verify clicking Reports and its sub links (ZEN2022-TC-44)
2024-01-23 12-09-40 Wait: 5000 milliseconds
2024-01-23 12-09-40 Open Menu: Menu opened successfully
2024-01-23 12-09-40 Getting the text of all side menu links
2024-01-23 12-09-40 Clicking on navbar link: My Reports
2024-01-23 12-09-40 Verifying URL includes: /myReports
2024-01-23 12-09-40 Clicking on navbar link: Favorites
2024-01-23 12-09-40 Verifying URL includes: /favorites
2024-01-23 12-09-40 Clicking on navbar link: What's New
2024-01-23 12-09-40 Verifying URL includes: /whatsNew
2024-01-23 12-09-40 Clicking on navbar link: Recently Viewed
2024-01-23 12-09-40 Verifying URL includes: /recentlyViewed
2024-01-23 12-09-40 Executing beforeEach hook
2024-01-23 12-09-40 TC-003 Verify performing search for a Report from Search bar (ZEN2022-TC-45)
2024-01-23 12-09-40 Wait: 2000 milliseconds
2024-01-23 12-09-40 Clicking on the global search input field, Clearing the existing text, Typing "Sheet 1" into the global search input field
2024-01-23 12-09-40 Executing beforeEach hook
2024-01-23 12-09-40 TC-004 Verify all the 3 views (List, Grid, Thumbnail) in My Reports, Favorites, What's New, Recently Viewed
2024-01-23 12-09-40 Wait: 5000 milliseconds
2024-01-23 12-09-40 Open Menu: Menu opened successfully
2024-01-23 12-09-40 Getting the text of all side menu links
2024-01-23 12-09-40 Clicking on the "My Reports" tab
2024-01-23 12-09-40 Clicking on the Thumbnail View
2024-01-23 12-09-40 Verifying the existence of the Thumbnail Container
2024-01-23 12-09-40 Clicking on the List View
2024-01-23 12-09-40 Verifying the existence of the List Container
2024-01-23 12-09-40 Clicking on the Grid View'
2024-01-23 12-09-40 Verifying the existence of the Grid Container
2024-01-23 12-09-40 Wait: 5000 milliseconds
2024-01-23 12-09-40 Open Menu: Menu opened successfully
2024-01-23 12-09-40 Getting the text of all side menu links
2024-01-23 12-09-40 Clicking on the "Favorites" tab
2024-01-23 12-09-40 Clicking on the Thumbnail View
2024-01-23 12-09-40 Verifying the existence of the Thumbnail Container
2024-01-23 12-09-40 Clicking on the List View
2024-01-23 12-09-40 Verifying the existence of the List Container
2024-01-23 12-09-40 Clicking on the Grid View'
2024-01-23 12-09-40 Verifying the existence of the Grid Container
2024-01-23 12-09-40 Wait: 5000 milliseconds
2024-01-23 12-09-40 Open Menu: Menu opened successfully
2024-01-23 12-09-40 Getting the text of all side menu links
2024-01-23 12-09-40 Clicking on the "What's New" tab
2024-01-23 12-09-40 Clicking on the Thumbnail View
2024-01-23 12-09-40 Verifying the existence of the Thumbnail Container
2024-01-23 12-09-40 Clicking on the List View
2024-01-23 12-09-40 Verifying the existence of the List Container
2024-01-23 12-09-40 Clicking on the Grid View'
2024-01-23 12-09-40 Verifying the existence of the Grid Container
2024-01-23 12-09-40 Wait: 5000 milliseconds
2024-01-23 12-09-40 Open Menu: Menu opened successfully
2024-01-23 12-09-40 Getting the text of all side menu links
2024-01-23 12-09-40 Clicking on the "Recently Viewed" tab
2024-01-23 12-09-40 Clicking on the Thumbnail View
2024-01-23 12-09-40 Verifying the existence of the Thumbnail Container
2024-01-23 12-09-40 Clicking on the List View
2024-01-23 12-09-40 Verifying the existence of the List Container
2024-01-23 12-09-40 Clicking on the Grid View'
2024-01-23 12-09-40 Verifying the existence of the Grid Container
2024-01-23 12-09-40 Executing beforeEach hook
2024-01-23 12-09-40 TC-005 Verify manual upload thumbnail generation
2024-01-23 12-09-40 Wait: 5000 milliseconds
2024-01-23 12-09-40 Open Menu: Menu opened successfully
2024-01-23 12-09-40 Clicking on Administrator Settings
2024-01-23 12-09-40 Clicking on Application Settings
2024-01-23 12-09-40 Clicking on Thumbnail Settings
2024-01-23 12-09-40 Typed BS Forecast in the search input for thumbnail settings
2024-01-23 12-09-40 Verified that the search card has the expected text
2024-01-23 12-09-40 Selected file at path: C:\Users\Ankitha\cypressautomation\cypress\fixtures\companylogo.svg
2024-01-23 12-09-40 Clicked on "Upload Thumbnail Images" button
2024-01-23 12-09-40 Verified that the state column contains "Admin Uploaded"
2024-01-23 12-09-40 Executing beforeEach hook
2024-01-23 12-09-40 TC-010 Verify if the fields in BI Dictionary are showing report using this field and authorized user
2024-01-23 12-09-40 Wait: 5000 milliseconds
2024-01-23 12-09-40 Open Menu: Menu opened successfully
2024-01-23 12-09-40 Clicking on Steward Manegement
2024-01-23 12-09-40 Clicking on Bi Dictionary
2024-01-23 12-09-40 Wait: 2000 milliseconds
2024-01-23 12-09-40 Typed "Account Drill" in the search field on the first page
2024-01-23 12-09-40 Wait: for 1000 milliseconds
2024-01-23 12-09-40 Verified that the search card contains "Account Drill"
2024-01-23 12-09-40 Clicked on the action column
2024-01-23 12-09-40 Clicked on the search field on the first page 
2024-01-23 12-09-40 Typed " Sales Analysis " in the search field on the second page
2024-01-23 12-09-40 Verified that the search card contains " Sales Analysis "
2024-01-23 12-09-40 Wait: 1000 milliseconds
2024-01-23 12-09-40 Clicked on the authorized user button
2024-01-23 12-09-40 Clicked on the pagination drop-down
2024-01-23 12-09-40 Verified that the authorized user list has 28 items
2024-01-23 12-09-40 Executing beforeEach hook
2024-01-23 12-09-40 TC-011 Verify if the fields in BI Glossary are showing report using this field
2024-01-23 12-09-40 Wait: 5000 milliseconds
2024-01-23 12-09-40 Open Menu: Menu opened successfully
2024-01-23 12-09-40 Clicking on Steward Manegement
2024-01-23 12-09-40 Clicking on Bi Dictionary
2024-01-23 12-09-40 Typed "Account Drill" in the search field on the first page
2024-01-23 12-09-40 Verified that the search card contains "Account Drill"
2024-01-23 12-09-40 Clicked on the approved checkbox
2024-01-23 12-09-40 Clicking on the update button
2024-01-23 12-09-40 Wait: 5000 milliseconds
2024-01-23 12-09-40 Open Menu: Menu opened successfully
2024-01-23 12-09-40 Getting the text of all side menu links
2024-01-23 12-09-40 Executing beforeEach hook
2024-01-23 12-09-40 TC_012 Launch Few Report & see there is no error
2024-01-23 12-09-40 Wait: 5000 milliseconds
2024-01-23 12-09-40 Open Menu: Menu opened successfully
2024-01-23 12-09-40 Wait: 5000 milliseconds
2024-01-23 12-09-40 Open Menu: Menu opened successfully
2024-01-23 12-09-40 Wait: 5000 milliseconds
2024-01-23 12-09-40 Open Menu: Menu opened successfully
2024-01-23 12-09-40 Wait: 5000 milliseconds
2024-01-23 12-09-40 Open Menu: Menu opened successfully
2024-01-23 12-09-40 Wait: 5000 milliseconds
2024-01-23 12-09-40 Open Menu: Menu opened successfully
2024-01-23 12-09-40 Executing beforeEach hook
2024-01-23 12-09-40 Wait: 5000 milliseconds
2024-01-23 12-09-40 Open Menu: Menu opened successfully
2024-01-23 12-09-40 Wait: 5000 milliseconds
2024-01-23 12-09-40 Open Menu: Menu opened successfully
2024-01-23 12-09-40 Click on Home Icon
2024-01-23 12-09-40 Checked favorite display for report: 2305Data 
2024-01-23 12-09-40 Wait: 5000 milliseconds
2024-01-23 12-09-40 Open Menu: Menu opened successfully
2024-01-23 12-09-40 Click on Home Icon
2024-01-23 12-09-40 Checked favorite display for report: Test 
2024-01-23 12-09-40 Executing beforeEach hook
2024-01-23 12-09-40 TC-014_Verify Creating a WF and share the WF with some user and see if the email is sent out
2024-01-23 12-09-40 Wait: 2000 milliseconds
2024-01-23 12-09-40 Clicking on the global search input field, Clearing the existing text, Typing "ArpitaDefaultSheet 2" into the global search input field
Click on searched first report: ArpitaDefaultSheet 2
2024-01-23 12-09-40 Clicking on save Button
2024-01-23 12-09-40 Clicking on next Button
2024-01-23 12-09-40 Type Sheet 3 to save workflow
2024-01-23 12-09-40Type Sheet 3
2024-01-23 12-09-40 Type Sheet 3
2024-01-23 12-09-40 Clicked on the report search field Bind
2024-01-23 12-09-40 Clicked on the first user in the user list
2024-01-23 12-09-40 Type Sheet 3
2024-01-23 12-09-40 Click save button
2024-01-23 12-09-40 Verified that the workflow toaster notification exists and has the expected text
2024-01-23 12-09-40 Wait: 5000 milliseconds
2024-01-23 12-09-40 Open Menu: Menu opened successfully
2024-01-23 12-09-40 Getting the text of all side menu links
2024-01-23 12-09-40 Workflow name matched: Sheet 3
2024-01-23 12-09-40 Clicking the share button
2024-01-23 12-09-40 Shared workflow successfully
2024-01-23 12-09-40 Wait: 5000 milliseconds
2024-01-23 12-09-40 Open Menu: Menu opened successfully
2024-01-23 12-09-40 Getting the text of all side menu links
2024-01-23 12-09-40 Number of values: 1
2024-01-23 12-09-40 UserCount:'1
2024-01-23 12-09-40 The number of values matches the user count.
2024-01-23 12-09-40 Executing beforeEach hook
2024-01-23 12-09-40 TC-015 Subscribe to a report and add public and private comments and see if the subscribed user gets the email notification on public comment
2024-01-23 12-09-40 Wait: 2000 milliseconds
2024-01-23 12-09-40 Clicking on the global search input field, Clearing the existing text, Typing "Sheet 3" into the global search input field
Click on searched first report: Sheet 3
2024-01-23 12-09-40 'Mat-tooltip attribute is "Unsubscribe". Calling unSubscribeReport.
2024-01-23 12-09-40 'Mat-tooltip attribute is "Unsubscribe". Calling unSubscribeReport.
2024-01-23 12-09-40 Calling subscribeReport.
2024-01-23 12-09-40 Clicking on Profile icon
2024-01-23 12-09-40 Clicking on Logout
2024-01-23 12-09-40 Login as Subscribed user
2024-01-23 12-09-40 Wait: 2000 milliseconds
2024-01-23 12-09-40 Clicking on the global search input field, Clearing the existing text, Typing "Sheet 3" into the global search input field
Click on searched first report: Sheet 3
2024-01-23 12-09-40 Clicking on the report comment
2024-01-23 12-09-40 Waiting: 3000 milliseconds
2024-01-23 12-09-40 Getting the comment count before adding a new comment
2024-01-23 12-09-40 Typing the comment in the comment input field
2024-01-23 12-09-40 Clicking on the comment button
2024-01-23 12-09-40 Verifying the toaster notification for successful comment addition
2024-01-23 12-09-40 Wait:3000 milliseconds
2024-01-23 12-09-40 Checking if the comment count increased by 1
2024-01-23 12-09-40 comment count increased by 1
2024-01-23 12-09-40 Executing beforeEach hook
2024-01-23 12-09-40 TC-019 Verfiy the multiview functionality
2024-01-23 12-09-40 Wait: 5000 milliseconds
2024-01-23 12-09-40 Open Menu: Menu opened successfully
2024-01-23 12-09-40 Verify Report is opened in multiview
2024-01-23 12-09-40 Clicking on grid view
2024-01-23 12-09-40 Verify Gridview container exist
2024-01-23 12-09-40 Open report from gridview
2024-01-23 12-09-40 Clicking on back
2024-01-23 12-09-40 Open report from gridview
2024-01-23 12-09-40 Clicking on back
2024-01-23 12-09-40 Clicking on multiview button
2024-01-23 12-09-40 Clicking on multiview enabled button
2024-01-23 12-09-40 Verifying the existence of the split view
2024-01-23 12-09-40 Verifying the number of reports in split view
2024-01-23 12-09-40 Clicking on the single view button
2024-01-23 12-09-40 Verifying the existence of the single view
2024-01-23 12-09-40 Verifying the number of reports in single view
2024-01-23 12-09-40 Executing beforeEach hook
2024-01-23 12-09-40 TC-020 Verify favoriting a report
2024-01-23 12-09-40 Wait: 2000 milliseconds
2024-01-23 12-09-40 Clicking on the global search input field, Clearing the existing text, Typing "Sheet 1 " into the global search input field
Click on searched first report: Sheet 1 
2024-01-23 12-09-40 Finding report header and navigating to the first child mat-icon
2024-01-23 12-09-40 Checking if the mat-tooltip attribute is "Unfavorite
2024-01-23 12-09-40 Clicking on Unfavourite report 
2024-01-23 12-09-40 Clicking on favourite report 
2024-01-23 12-09-40 Executing beforeEach hook
2024-01-23 12-09-40 TC-022 Email report link and verify if it can be sent to the people added in recipients field
2024-01-23 12-09-40 Wait: 2000 milliseconds
2024-01-23 12-09-40 Clicking on the global search input field, Clearing the existing text, Typing "Sheet 1" into the global search input field
Click on searched first report: Sheet 1
2024-01-23 12-09-40 Clicking on send Email icon
2024-01-23 12-09-40 Type Email ID to send
2024-01-23 12-09-40 Type email message 'please find below your report'
2024-01-23 12-09-40 Click on send email button
2024-01-23 12-09-40 Executing beforeEach hook
2024-01-23 12-09-40 Wait: 5000 milliseconds
2024-01-23 12-09-40 Open Menu: Menu opened successfully
2024-01-23 12-09-40 Opening LDAP Configuration tab
2024-01-23 12-09-40 Wait: 5000 milliseconds
2024-01-23 12-09-40 Open Menu: Menu opened successfully
2024-01-23 12-09-40 Configuring LDAP with URL: ldap://192.168.1.4:3268
2024-01-23 12-09-40 Configuring LDAP Bind DN: svc_zenoptics@zenoptics.com
2024-01-23 12-09-40 Configuring LDAP Password DN: Zen95113!
2024-01-23 12-09-40 Configuring LDAP User Base: OU=zenoptics-IT,DC=zenoptics,DC=com 
2024-01-23 12-09-40 Configuring LDAP Attributes: sAMAccountName
2024-01-23 12-09-40 Clicking on update button
2024-01-23 12-09-40 Executing beforeEach hook
2024-01-23 12-09-40 TC-024 Verify extractor scheduling functionality
2024-01-23 12-09-40 Wait: 5000 milliseconds
2024-01-23 12-09-40 Open Menu: Menu opened successfully
2024-01-23 12-09-40 Clicking on Administrator Settings
2024-01-23 12-09-40 Clicking on Source Connection settings
2024-01-23 12-09-40 Clicking on body
2024-01-23 12-09-40 Clicking on the search connection button.
2024-01-23 12-09-40 Typing connection name 'Tableau_C8' in the search input.
2024-01-23 12-09-40 Navigating to the third table on the page
2024-01-23 12-09-40 Clicking on the "Schedule Job" button for the first item in the table
2024-01-23 12-09-40 Clicking on the submit button in the user form
2024-01-23 12-09-40 Verifying the existence and text of the toaster notification
2024-01-23 12-09-40 Verifying the text in the scheduler period in the mat-sidenav
2024-01-23 12-09-40 Executing beforeEach hook
2024-01-23 12-09-40 Wait: 5000 milliseconds
2024-01-23 12-09-40 Open Menu: Menu opened successfully
2024-01-23 12-09-40 Wait: 5000 milliseconds
2024-01-23 12-09-40 Open Menu: Menu opened successfully
2024-01-23 12-09-40 Executing beforeEach hook
2024-01-23 12-09-40 TC-027 Verify Report types page
2024-01-23 12-09-40 Wait: 5000 milliseconds
2024-01-23 12-09-40 Open Menu: Menu opened successfully
2024-01-23 12-09-40 Getting the text of all side menu links
2024-01-23 12-09-40 Wait: 5000 milliseconds
2024-01-23 12-09-40 Open Menu: Menu opened successfully
2024-01-23 12-09-40 Executing beforeEach hook
2024-01-23 12-09-40 TC-028 Verify Categorized Reports page
2024-01-23 12-09-40 Wait: 5000 milliseconds
2024-01-23 12-09-40 Open Menu: Menu opened successfully
2024-01-23 12-09-40 Clicking on Administrator Settings
2024-01-23 12-09-40 Clicking on Steward Management
2024-01-23 12-09-40 Clicking on Categorized Reports
2024-01-23 12-09-40 Select category: QA1
2024-01-23 12-09-40 Executing beforeEach hook
2024-01-23 12-09-40 TC_029 Verify Compnay Logo Uploading
2024-01-23 12-09-40 Executing beforeEach hook
2024-01-23 12-09-40 Verify Updating a workflow including updating shared users , adding reports,removing reports and changing the order of reports
2024-01-23 12-09-40 Wait: 5000 milliseconds
2024-01-23 12-09-40 Open Menu: Menu opened successfully
Opened the menu
2024-01-23 12-09-40 Getting the text of all side menu links
Clicked on side menu link: Workflow
2024-01-23 12-09-40 Click on Home Icon
2024-01-23 12-09-40 Wait: 5000 milliseconds
2024-01-23 12-09-40 Open Menu: Menu opened successfully
2024-01-23 12-09-40 Getting the text of all side menu links
2024-01-23 12-09-40 Executing beforeEach hook
2024-01-23 12-09-40 TC-034 Switching between classic and modern dashboard
2024-01-23 12-09-40 Clicking on Profile icon
2024-01-23 12-09-40 Clicking on dashboard setting icon
2024-01-23 12-09-40 Toggle dashboard style
2024-01-23 12-09-40 Executing beforeEach hook
2024-01-23 12-09-40 TC-035 Verify the Experimental flags for dashboard personalization
2024-01-23 12-09-40 Wait: 5000 milliseconds
2024-01-23 12-09-40 Open Menu: Menu opened successfully
2024-01-23 12-09-40 Click on Home Icon
2024-01-23 12-09-40 Wait: 5000 milliseconds
2024-01-23 12-09-40 Open Menu: Menu opened successfully
2024-01-23 12-09-40 Click on Home Icon
2024-01-23 12-09-40 Wait: 5000 milliseconds
2024-01-23 12-09-40 Open Menu: Menu opened successfully
2024-01-23 12-09-40 Clicking on Profile icon
2024-01-23 12-09-40 Clicking on dashboard setting icon
2024-01-23 12-09-40 Wait: 5000 milliseconds
2024-01-23 12-09-40 Open Menu: Menu opened successfully
2024-01-23 12-09-40 Clicking on Profile icon
2024-01-23 12-09-40 Clicking on dashboard setting icon
2024-01-23 12-09-40 Executing beforeEach hook
2024-01-23 12-09-40 TC-036 Verify the thumbnail attributes across different widgets in the Dashboard
2024-01-23 12-09-40 Finding report header and navigating to the first child mat-icon
2024-01-23 12-09-40 Checking if the mat-tooltip attribute is "Unfavorite
2024-01-23 12-09-40 Clicking on Unfavourite report 
2024-01-23 12-09-40 Clicking on favourite report 
2024-01-23 12-09-40 Executing beforeEach hook
2024-01-23 12-09-40 Clicking on Profile icon
2024-01-23 12-09-40 Clicking on dashboard setting icon
2024-01-23 12-09-40 Executing beforeEach hook
2024-01-23 12-09-40 Clicking on Profile icon
2024-01-23 12-09-40 Clicking on dashboard setting icon
2024-01-23 12-09-40 Executing beforeEach hook
2024-01-23 12-09-40 TC-042_2 Verify back button and refresh works in below pages in the application
2024-01-23 12-09-40 Login application: Login Successful
2024-01-23 12-09-40 Wait: 5000 milliseconds
2024-01-23 12-09-40 Open Menu: Menu opened successfully
2024-01-23 12-09-40 Getting the text of all side menu links
2024-01-23 12-09-40 Click side menu link: Workflow
2024-01-23 12-09-40 Wait: 4000 milliseconds
2024-01-23 12-09-40 Navigate: Go back to the dashboard
2024-01-23 12-09-40 Reload page: Page reloaded successfully
2024-01-23 12-09-40 Login application: Login Successful
2024-01-23 12-09-40 Wait: 5000 milliseconds
2024-01-23 12-09-40 Open Menu: Menu opened successfully
2024-01-23 12-09-40 Getting the text of all side menu links
2024-01-23 12-09-40 Click side menu link: Categories
2024-01-23 12-09-40 Wait: 4000 milliseconds
2024-01-23 12-09-40 Navigate: Go back to the dashboard
2024-01-23 12-09-40 Reload page: Page reloaded successfully
2024-01-23 12-09-40 Login application: Login Successful
2024-01-23 12-09-40 Wait: 5000 milliseconds
2024-01-23 12-09-40 Open Menu: Menu opened successfully
2024-01-23 12-09-40 Getting the text of all side menu links
2024-01-23 12-09-40 Click side menu link: BI Glossary
2024-01-23 12-09-40 Wait: 4000 milliseconds
2024-01-23 12-09-40 Navigate: Go back to the dashboard
2024-01-23 12-09-40 Reload page: Page reloaded successfully
2024-01-23 12-09-40 Login application: Login Successful
2024-01-23 12-09-40 Wait: 5000 milliseconds
2024-01-23 12-09-40 Open Menu: Menu opened successfully
2024-01-23 12-09-40 Getting the text of all side menu links
2024-01-23 12-09-40 Click side menu link: Report Types
2024-01-23 12-09-40 Wait: 4000 milliseconds
2024-01-23 12-09-40 Navigate: Go back to the dashboard
2024-01-23 12-09-40 Reload page: Page reloaded successfully
2024-01-23 12-09-40 Executing beforeEach hook
2024-01-23 12-09-40 TC-042_3 Verify back button and refresh works in below pages in the application
2024-01-23 12-09-40 Wait: 5000 milliseconds
2024-01-23 12-09-40 Open Menu: Menu opened successfully
2024-01-23 12-09-40 Clicking on Steward Manegement
2024-01-23 12-09-40 Clicking on Bi Dictionary
2024-01-23 12-09-40 Click back
2024-01-23 12-09-40 Reload: page Reload
2024-01-23 12-09-40 Executing beforeEach hook
2024-01-23 12-09-40 TC-042_4 Verify back button and refresh works in below pages in the application
2024-01-23 12-09-40 Wait: 5000 milliseconds
2024-01-23 12-09-40 Open Menu: Menu opened successfully
2024-01-23 12-09-40 Getting the text of all side menu links
2024-01-23 12-09-40 Executing beforeEach hook
2024-01-23 12-09-40 TC-042_5 Verify back button and refresh works in below pages in the application
2024-01-23 12-09-40 Executing beforeEach hook
2024-01-23 12-09-40 TC-046 Verify the pagination is maintained when Back button is cliked in BI Dictionary
2024-01-23 12-09-40 Wait: 5000 milliseconds
2024-01-23 12-09-40 Open Menu: Menu opened successfully
2024-01-23 12-09-40 Wait: 5000 milliseconds
2024-01-23 12-09-40 Open Menu: Menu opened successfully
2024-01-23 12-09-40 Clicking on Administrator Settings
2024-01-23 12-09-40 Clicking on Source Connection settings
2024-01-23 12-09-40 Clicking on body
2024-01-23 12-09-40 Wait: 5000 milliseconds
2024-01-23 12-09-40 Open Menu: Menu opened successfully
2024-01-23 12-09-40 Wait: 5000 milliseconds
2024-01-23 12-09-40 Open Menu: Menu opened successfully
2024-01-23 12-09-40 Clicking on Administrator Settings
2024-01-23 12-09-40 Clicking on Report type testing
2024-01-23 12-09-40 Clicking on page body
2024-01-23 12-09-40 Executing beforeEach hook
2024-01-23 12-09-40 TC-050 Verify Creating a Newly created User and verify accessing the application and dashboard
2024-01-23 12-09-40 Wait: 5000 milliseconds
2024-01-23 12-09-40 Open Menu: Menu opened successfully
2024-01-23 12-09-40 Clicking on Profile icon
2024-01-23 12-09-40 Clicking on Logout
2024-01-23 12-09-40 Wait: 5000 milliseconds
2024-01-23 12-09-40 Open Menu: Menu opened successfully
2024-01-23 12-09-40 Executing beforeEach hook
2024-01-23 12-09-40 TC-038 Verify pinning/unpinning categories from dashboard page
2024-01-23 12-09-40 Clicking on Profile icon
2024-01-23 12-09-40 Clicking on dashboard setting icon
2024-01-23 12-09-40 Executing beforeEach hook
2024-01-23 12-09-40 TC-038 Verify pinning/unpinning categories from dashboard page
2024-01-23 12-09-40 Clicking on Profile icon
2024-01-23 12-09-40 Clicking on dashboard setting icon
2024-01-23 12-09-40 Executing beforeEach hook
2024-01-23 12-09-40 TC-038 Verify pinning/unpinning categories from dashboard page
2024-01-23 12-09-40 Clicking on Profile icon
2024-01-23 12-09-40 Clicking on dashboard setting icon
2024-01-23 12-09-40 Executing beforeEach hook
2024-01-23 12-09-40 Clicking on Profile icon
2024-01-23 12-09-40 Clicking on dashboard setting icon
2024-01-23 12-09-40 Executing beforeEach hook
2024-01-23 12-09-40 Clicking on Profile icon
2024-01-23 12-09-40 Clicking on dashboard setting icon
2024-01-23 12-09-40 Executing beforeEach hook
2024-01-23 12-09-40 TC-056 Verify the Single view with Multiple reports open
2024-01-23 12-09-40 Wait: 5000 milliseconds
2024-01-23 12-09-40 Open Menu: Menu opened successfully
2024-01-23 12-09-40 Executing beforeEach hook
2024-01-23 12-09-40 TC-057 Verify the Split view with Multiple reports open
2024-01-23 12-09-40 Wait: 5000 milliseconds
2024-01-23 12-09-40 Open Menu: Menu opened successfully
2024-01-23 12-09-40 Executing beforeEach hook
2024-01-23 12-09-40 TC-058 Verify scheduling auto-refresh options in split View
2024-01-23 12-09-40 Wait: 5000 milliseconds
2024-01-23 12-09-40 Open Menu: Menu opened successfully
2024-01-23 12-09-40 Executing beforeEach hook
2024-01-23 12-09-40 TC-059 Verify scheduling auto-refresh options in Single View
2024-01-23 12-09-40 Wait: 5000 milliseconds
2024-01-23 12-09-40 Open Menu: Menu opened successfully
2024-01-23 12-09-40 Executing beforeEach hook
2024-01-23 12-09-40 TC-60 Verify scheduling auto-refresh in Multi View
2024-01-23 12-09-40 Wait: 5000 milliseconds
2024-01-23 12-09-40 Open Menu: Menu opened successfully
2024-01-23 12-09-40 Executing beforeEach hook
2024-01-23 12-09-40 TC-061 Verify the Rating, View Count and report info are displayed correctly for the search results in Quick Search Page
2024-01-23 12-09-40 Wait: 2000 milliseconds
2024-01-23 12-09-40 Clicking on the global search input field, Clearing the existing text, Typing "Sheet 1" into the global search input field
2024-01-23 12-09-40 Executing beforeEach hook
2024-01-23 12-09-40 TC-062 Verify the Rating, View Count and report info are displayed correctly for the search results in Advanced Search Page
2024-01-23 12-09-40 Executing beforeEach hook
2024-01-23 12-09-40 TC-063 Verify new workflow created and delete successfully
2024-01-23 12-09-40 Wait: 5000 milliseconds
2024-01-23 12-09-40 Open Menu: Menu opened successfully
2024-01-23 12-09-40 Getting the text of all side menu links
2024-01-23 12-09-40 Wait: 2000 milliseconds
2024-01-23 12-09-40 Clicking on the global search input field, Clearing the existing text, Typing "0511sheet1" into the global search input field
Click on searched first report: 0511sheet1
2024-01-23 12-09-40 Wait: 2000 milliseconds
2024-01-23 12-09-40 Clicking on the global search input field, Clearing the existing text, Typing "Sheet 1" into the global search input field
Click on searched first report: Sheet 1
2024-01-23 12-09-40 Wait: 5000 milliseconds
2024-01-23 12-09-40 Open Menu: Menu opened successfully
2024-01-23 12-09-40 Getting the text of all side menu links
2024-01-23 12-09-40 Executing beforeEach hook
2024-01-23 12-09-40 TC-064 Tableau Connector Delete
2024-01-23 12-09-40 Wait: 5000 milliseconds
2024-01-23 12-09-40 Open Menu: Menu opened successfully
2024-01-23 12-09-40 Clicking on Administrator Settings
2024-01-23 12-09-40 Clicking on Source Connection settings
2024-01-23 12-09-40 Clicking on body
2024-01-23 12-09-40 Test suite completed
